{"page":1,"limit":10,"explicit":false,"total":6268298,"has_more":true,"list":[{"id":"x2yjsfq","title":"Children and Fairy Tales (Fairy Tale Music, Fun Playful Adventurous) - Craze Music Pack","channel":"music","owner":"x1jipo5"},{"id":"x2yjsfa","title":"Hellsing OST - Alucard\u00b4s Theme","channel":"music","owner":"x1kevi6"},{"id":"x2yjryd","title":"Mino Reitano - Avevo Un Cuore Che Ti Amava Tanto.","channel":"music","owner":"x9q4sf"},{"id":"x2yjsd7","title":"Melody Gardot - Baby I'm a fool - guitar chords cover","channel":"music","owner":"x1hkv1l"},{"id":"x2yjs4l","title":"Spinners~ \"  I Just Want To Fall In Love \" \u2764\ufe0f     1980","channel":"music","owner":"xuu0g6"},{"id":"x2yjrov","title":"Sing - Ed Sheeran (HelenaMaria Cover)","channel":"music","owner":"x1j9aa3"},{"id":"x2yjsbu","title":"Oasis Supersonic Earls court (1995)","channel":"music","owner":"x1jon0b"},{"id":"x2yjsas","title":"The Refined Country Band  --Rose in Paradise","channel":"music","owner":"x1jon0b"},{"id":"x2yjrmb","title":"Pussy Cat - Dans ce Monde Fou - 1968","channel":"music","owner":"xzpy0c"},{"id":"x2yjrsk","title":"Fuck The Industry And Motherfuck Radio, Man! - Explosion (B)","channel":"music","owner":"x1if2wb"}]}
